<svg width="19" height="8" viewBox="0 0 19 8" fill="none" xmlns="http://www.w3.org/2000/svg">
<path fill-rule="evenodd" clip-rule="evenodd" d="M0.646447 4.35389C0.451184 4.15863 0.451184 3.84205 0.646447 3.64679L3.82843 0.464806C4.02369 0.269544 4.34027 0.269544 4.53553 0.464806C4.7308 0.660068 4.7308 0.976651 4.53553 1.17191L2.20711 3.50034H19V4.50034H2.20711L4.53553 6.82877C4.7308 7.02403 4.7308 7.34061 4.53553 7.53587C4.34027 7.73114 4.02369 7.73114 3.82843 7.53587L0.646447 4.35389Z" fill="#DABE89"/>
</svg>
